{
  "type": "project",
  "label": "11332",
  "outcomes": [
    {
      "id": "58c89b4c-ca72-45c5-a898-e7d70e84bf21",
      "type": "outcome",
      "color": "#FFED8F",
      "label": "Contained",
      "reasons": [],
      "percentage": 33,
      "description": "User completes task without Human Assistance, Golden Call.",
      "outcomeType": "Project",
      "outcomeValue": "Positive"
    },
    {
      "id": "a00201cc-4870-4462-8db0-0b4d9675669d",
      "type": "outcome",
      "color": "#8FBCFF",
      "label": "HITL",
      "reasons": [],
      "percentage": 33,
      "description": "Human in the Loop",
      "outcomeType": "Project",
      "outcomeValue": "Neutral"
    },
    {
      "id": "f9f1fdef-a002-4984-bd49-61a4db92055e",
      "type": "outcome",
      "color": "#FFBFCB",
      "label": "Abandon",
      "reasons": [],
      "percentage": 33,
      "description": "User exits system without completion point.",
      "outcomeType": "Project",
      "outcomeValue": "Negative"
    },
    {
      "id": "escalate",
      "label": "Escalate",
      "description": "User is moved to Global Agent Transfer pattern, passing along flow and context.",
      "destinationPattern": "",
      "outcomeType": "Global",
      "outcomeValue": "Neutral",
      "type": "outcome",
      "color": "#8FBCFF"
    },
    {
      "id": "fallback",
      "label": "Fallback",
      "description": "If user is stuck in n or more repairs on the voice channel. Offer alternate channel if available, or switch to easier input.",
      "destinationPattern": "",
      "outcomeType": "Global",
      "outcomeValue": "Neutral",
      "type": "outcome",
      "color": "#EBBFFF"
    }
  ],
  "patterns": [
    {
      "label": "11332",
      "id": "791c3d80-5047-4292-a8c3-fdc9e7a7228c",
      "parent": "11332",
      "parentId": "d88b241d-c247-4a46-87be-51661134af9c",
      "patternType": "Inbound",
      "nodeType": "pattern",
      "type": "pattern",
      "channels": [
        {
          "id": "IVR",
          "type": "channel",
          "label": "IVR",
          "description": "Voice over the phone"
        },
        {
          "id": "RWC",
          "type": "channel",
          "label": "RWC",
          "description": "Rich webchat UI"
        },
        {
          "id": "SMS",
          "type": "channel",
          "label": "SMS",
          "description": "Text messaging"
        }
      ],
      "flowData": [
        {
          "id": "2066c7f6-0605-4818-a772-fc3732d96d0b",
          "flow": [
            {
              "id": "c796ce58-4491-44ea-bfb5-713196982571",
              "type": "flowCondition",
              "label": "subflow1",
              "order": 1,
              "toNode": "SubFlow1",
              "description": "This is first SubFlow link description",
              "gotoNodeType": "normal"
            }
          ],
          "type": "node",
          "label": "Start",
          "parent": "11332/11332",
          "nodeType": "startPoint",
          "parentId": "d88b241d-c247-4a46-87be-51661134af9c/791c3d80-5047-4292-a8c3-fdc9e7a7228c",
          "description": "Pattern Flow Start",
          "applyInputsToFlow": false,
          "nodeDisplayOption": "description"
        },
        {
          "id": "2d792e89-2b2d-443c-9921-7a8beb272702",
          "flow": [
            {
              "label": "routermenu1",
              "order": 1,
              "toNode": "RouterMenu1",
              "linkType": "down",
              "description": "This is first RouterMenu link description",
              "gotoNodeType": "normal",
              "id": "07090f4e-b56f-49a4-854c-d79bd44a8e20",
              "type": "flowCondition"
            }
          ],
          "type": "node",
          "label": "SubFlow1",
          "nodeType": "subFlow",
          "subflowId": "4c5defd5-96db-41fe-9860-587cb339eb4b",
          "containsPii": false,
          "description": "This is first SubFlow description",
          "nodeDisplayOption": "description",
          "parent": "11332/11332",
          "parentId": "d88b241d-c247-4a46-87be-51661134af9c/791c3d80-5047-4292-a8c3-fdc9e7a7228c",
          "applyInputsToFlow": false
        },
        {
          "id": "86174014-9a3a-4a84-8865-2830f79224e0",
          "flow": [
            {
              "label": "subflow2",
              "order": 1,
              "toNode": "SubFlow2",
              "linkType": "down",
              "description": "This is second SubFlow link description",
              "gotoNodeType": "normal",
              "id": "caa73e63-43b7-4949-925a-68f11e1f4b5e",
              "type": "flowCondition"
            }
          ],
          "type": "node",
          "label": "RouterMenu1",
          "output": [
            {
              "id": "390b6e62-ebeb-4c16-955c-269c0964f772",
              "type": "outputCondition",
              "label": "default",
              "content": [
                {
                  "id": "18427cae-8841-4a82-ae40-754ff8ba96cd",
                  "value": "What can I do for you today?"
                }
              ],
              "description": "",
              "conditionType": "primary"
            }
          ],
          "parent": "11332/11332",
          "skills": [],
          "channels": [],
          "nodeType": "routerMenu",
          "parentId": "d88b241d-c247-4a46-87be-51661134af9c/791c3d80-5047-4292-a8c3-fdc9e7a7228c",
          "description": "This is first RouterMenu description",
          "nodeDisplayOption": "description",
          "applyInputsToFlow": false
        },
        {
          "id": "dcf67b44-2f50-4778-8e34-87bf062ec31c",
          "flow": [
            {
              "label": "tagnode1",
              "order": 1,
              "toNode": "TagNode1",
              "linkType": "down",
              "description": "This is first TagNode link description",
              "gotoNodeType": "normal",
              "id": "c7b824c5-4d8b-4d2e-adeb-d280eb121aac",
              "type": "flowCondition"
            }
          ],
          "type": "node",
          "label": "SubFlow2",
          "nodeType": "subFlow",
          "subflowId": "77227fc6-1ce9-41d7-bd50-c6586b824ca2",
          "containsPii": false,
          "description": "This is second SubFlow description",
          "nodeDisplayOption": "description",
          "parent": "11332/11332",
          "parentId": "d88b241d-c247-4a46-87be-51661134af9c/791c3d80-5047-4292-a8c3-fdc9e7a7228c",
          "applyInputsToFlow": false
        },
        {
          "id": "44ad638f-7869-43eb-8305-701150081243",
          "flow": [
            {
              "label": "HangUp",
              "order": 2,
              "toNode": "Abandon",
              "linkType": "down",
              "description": "",
              "gotoNodeType": "outcomePoint",
              "id": "45f38765-9e86-4a4d-81d4-ff6156585911",
              "type": "flowCondition"
            },
            {
              "label": "Agent",
              "order": 3,
              "toNode": "Fallback",
              "linkType": "down",
              "description": "",
              "gotoNodeType": "outcomePoint",
              "id": "6e30ce33-b8f8-4ca8-9a28-3f134a38bcf5",
              "type": "flowCondition"
            }
          ],
          "type": "node",
          "label": "TagNode1",
          "parent": "11332/11332",
          "nodeType": "tagNode",
          "parentId": "d88b241d-c247-4a46-87be-51661134af9c/791c3d80-5047-4292-a8c3-fdc9e7a7228c",
          "containsPii": false,
          "description": "This is first TagNode description",
          "nodeDisplayOption": "description",
          "applyInputsToFlow": false
        }
      ],
      "entities": [],
      "entityGroups": [
        {
          "id": "e6720e12-75e4-46e4-921c-ee8f6cdd0013",
          "type": "entityGroup",
          "label": "defaultEntityGroup",
          "dependsOn": [],
          "primaryKey": "default",
          "description": "defaultEntityGroup",
          "sharedEndPoint": false
        }
      ],
      "outcomes": [
        {
          "id": "58c89b4c-ca72-45c5-a898-e7d70e84bf21",
          "type": "outcome",
          "color": "#FFED8F",
          "label": "Contained",
          "reasons": [],
          "percentage": 33,
          "description": "User completes task without Human Assistance, Golden Call.",
          "outcomeType": "Project",
          "outcomeValue": "Positive"
        },
        {
          "id": "a00201cc-4870-4462-8db0-0b4d9675669d",
          "type": "outcome",
          "color": "#8FBCFF",
          "label": "HITL",
          "reasons": [],
          "percentage": 33,
          "description": "Human in the Loop",
          "outcomeType": "Project",
          "outcomeValue": "Neutral"
        },
        {
          "id": "f9f1fdef-a002-4984-bd49-61a4db92055e",
          "type": "outcome",
          "color": "#FFBFCB",
          "label": "Abandon",
          "reasons": [],
          "percentage": 33,
          "description": "User exits system without completion point.",
          "outcomeType": "Project",
          "outcomeValue": "Negative"
        },
        {
          "id": "escalate",
          "label": "Escalate",
          "description": "User is moved to Global Agent Transfer pattern, passing along flow and context.",
          "destinationPattern": "",
          "outcomeType": "Global",
          "outcomeValue": "Neutral",
          "type": "outcome",
          "color": "#8FBCFF"
        },
        {
          "id": "fallback",
          "label": "Fallback",
          "description": "If user is stuck in n or more repairs on the voice channel. Offer alternate channel if available, or switch to easier input.",
          "destinationPattern": "",
          "outcomeType": "Global",
          "outcomeValue": "Neutral",
          "type": "outcome",
          "color": "#EBBFFF"
        }
      ],
      "subflows": [
        {
          "id": "4c5defd5-96db-41fe-9860-587cb339eb4b",
          "flowDataSet": [
            {
              "channel": {
                "id": "IVR",
                "type": "channel",
                "label": "IVR",
                "description": "Voice over the phone"
              },
              "flowData": [
                {
                  "id": "a67fc0ce-3199-415b-8b47-c8fdd8fa47fc",
                  "flow": [
                    {
                      "id": "990b15f9-6396-4cea-8a66-970f48b91540",
                      "label": "default",
                      "order": 1,
                      "toNode": "addPoint",
                      "description": "Start Experience",
                      "type": "flowCondition"
                    }
                  ],
                  "type": "node",
                  "label": "Start",
                  "nodeType": "startPoint",
                  "description": "Pattern Flow Start",
                  "parent": "11332/11332/SubFlow1",
                  "parentId": "d88b241d-c247-4a46-87be-51661134af9c/791c3d80-5047-4292-a8c3-fdc9e7a7228c/4c5defd5-96db-41fe-9860-587cb339eb4b",
                  "nodeDisplayOption": "description",
                  "applyInputsToFlow": false
                }
              ]
            },
            {
              "channel": {
                "id": "RWC",
                "type": "channel",
                "label": "RWC",
                "description": "Rich webchat UI"
              },
              "flowData": [
                {
                  "id": "18e18490-8d10-4802-9d22-2dbcf6e10d44",
                  "flow": [
                    {
                      "id": "d02b1dbb-7c83-4001-8c3f-0103b5aa42a3",
                      "label": "default",
                      "order": 1,
                      "toNode": "addPoint",
                      "description": "Start Experience",
                      "type": "flowCondition"
                    }
                  ],
                  "type": "node",
                  "label": "Start",
                  "nodeType": "startPoint",
                  "description": "Pattern Flow Start",
                  "parent": "11332/11332/SubFlow1",
                  "parentId": "d88b241d-c247-4a46-87be-51661134af9c/791c3d80-5047-4292-a8c3-fdc9e7a7228c/4c5defd5-96db-41fe-9860-587cb339eb4b",
                  "nodeDisplayOption": "description",
                  "applyInputsToFlow": false
                }
              ]
            },
            {
              "channel": {
                "id": "SMS",
                "type": "channel",
                "label": "SMS",
                "description": "Text messaging"
              },
              "flowData": [
                {
                  "id": "9e666635-fad6-499e-88cd-79e1e2962f95",
                  "flow": [
                    {
                      "id": "6611668b-0182-46e2-ba52-728e9ccf1873",
                      "label": "default",
                      "order": 1,
                      "toNode": "addPoint",
                      "description": "Start Experience",
                      "type": "flowCondition"
                    }
                  ],
                  "type": "node",
                  "label": "Start",
                  "nodeType": "startPoint",
                  "description": "Pattern Flow Start",
                  "parent": "11332/11332/SubFlow1",
                  "parentId": "d88b241d-c247-4a46-87be-51661134af9c/791c3d80-5047-4292-a8c3-fdc9e7a7228c/4c5defd5-96db-41fe-9860-587cb339eb4b",
                  "nodeDisplayOption": "description",
                  "applyInputsToFlow": false
                }
              ]
            }
          ],
          "label": "SubFlow1",
          "description": "This is first SubFlow description",
          "parent": "11332/11332",
          "parentId": "d88b241d-c247-4a46-87be-51661134af9c/791c3d80-5047-4292-a8c3-fdc9e7a7228c",
          "subflows": [],
          "type": "subFlow"
        },
        {
          "id": "77227fc6-1ce9-41d7-bd50-c6586b824ca2",
          "flowDataSet": [
            {
              "channel": {
                "id": "IVR",
                "type": "channel",
                "label": "IVR",
                "description": "Voice over the phone"
              },
              "flowData": [
                {
                  "id": "7290dfd3-2552-4a13-8af0-85d4fe043950",
                  "flow": [
                    {
                      "id": "f815f930-a3be-483c-8247-affd738f57be",
                      "label": "default",
                      "order": 1,
                      "toNode": "addPoint",
                      "description": "Start Experience",
                      "type": "flowCondition"
                    }
                  ],
                  "type": "node",
                  "label": "Start",
                  "nodeType": "startPoint",
                  "description": "Pattern Flow Start",
                  "parent": "11332/11332/SubFlow2",
                  "parentId": "d88b241d-c247-4a46-87be-51661134af9c/791c3d80-5047-4292-a8c3-fdc9e7a7228c/77227fc6-1ce9-41d7-bd50-c6586b824ca2",
                  "nodeDisplayOption": "description",
                  "applyInputsToFlow": false
                }
              ]
            },
            {
              "channel": {
                "id": "RWC",
                "type": "channel",
                "label": "RWC",
                "description": "Rich webchat UI"
              },
              "flowData": [
                {
                  "id": "cb14ff1c-52c1-4c0a-b737-9ed9023a2068",
                  "flow": [
                    {
                      "id": "72ee2714-4fcb-4364-ba54-9bdc9e1188c3",
                      "label": "default",
                      "order": 1,
                      "toNode": "addPoint",
                      "description": "Start Experience",
                      "type": "flowCondition"
                    }
                  ],
                  "type": "node",
                  "label": "Start",
                  "nodeType": "startPoint",
                  "description": "Pattern Flow Start",
                  "parent": "11332/11332/SubFlow2",
                  "parentId": "d88b241d-c247-4a46-87be-51661134af9c/791c3d80-5047-4292-a8c3-fdc9e7a7228c/77227fc6-1ce9-41d7-bd50-c6586b824ca2",
                  "nodeDisplayOption": "description",
                  "applyInputsToFlow": false
                }
              ]
            },
            {
              "channel": {
                "id": "SMS",
                "type": "channel",
                "label": "SMS",
                "description": "Text messaging"
              },
              "flowData": [
                {
                  "id": "3bfe71e7-44a0-41c4-8eaf-2dc6acaf3140",
                  "flow": [
                    {
                      "id": "95e673a7-30c2-420d-9fb8-4cb8f7cdf533",
                      "label": "default",
                      "order": 1,
                      "toNode": "addPoint",
                      "description": "Start Experience",
                      "type": "flowCondition"
                    }
                  ],
                  "type": "node",
                  "label": "Start",
                  "nodeType": "startPoint",
                  "description": "Pattern Flow Start",
                  "parent": "11332/11332/SubFlow2",
                  "parentId": "d88b241d-c247-4a46-87be-51661134af9c/791c3d80-5047-4292-a8c3-fdc9e7a7228c/77227fc6-1ce9-41d7-bd50-c6586b824ca2",
                  "nodeDisplayOption": "description",
                  "applyInputsToFlow": false
                }
              ]
            }
          ],
          "label": "SubFlow2",
          "description": "This is second SubFlow description",
          "parent": "11332/11332",
          "parentId": "d88b241d-c247-4a46-87be-51661134af9c/791c3d80-5047-4292-a8c3-fdc9e7a7228c",
          "subflows": [],
          "type": "subFlow"
        }
      ],
      "mapper": [],
      "description": ""
    }
  ],
  "templates": {
    "defaultOpenTemplate": {
      "id": "defaultOpenTemplate",
      "label": "DefaultOpenTemplate",
      "hasPre": true,
      "hasPost": true,
      "hasRepair": true,
      "description": "This is the default open template.",
      "templateType": "openQuestion",
      "channelConditions": [
        {
          "flow": [],
          "input": {
            "models": []
          },
          "output": [],
          "channelId": "IVR"
        },
        {
          "flow": [],
          "input": {
            "models": []
          },
          "output": [],
          "channelId": "RWC"
        },
        {
          "flow": [],
          "input": {
            "models": []
          },
          "output": [],
          "channelId": "SMS"
        },
        {
          "flow": [],
          "input": {
            "models": []
          },
          "output": [],
          "channelId": "App"
        },
        {
          "flow": [],
          "input": {
            "models": []
          },
          "output": [],
          "channelId": "rSMS"
        },
        {
          "flow": [],
          "input": {
            "models": []
          },
          "output": [],
          "channelId": "VoIP"
        }
      ]
    },
    "defaultClosedTemplate": {
      "id": "defaultClosedTemplate",
      "label": "DefaultClosedTemplate",
      "hasPre": true,
      "hasPost": true,
      "hasRepair": true,
      "description": "This is the default closed template.",
      "templateType": "closedQuestion",
      "channelConditions": [
        {
          "flow": [],
          "input": {
            "models": []
          },
          "output": [],
          "channelId": "IVR"
        },
        {
          "flow": [],
          "input": {
            "models": []
          },
          "output": [],
          "channelId": "RWC"
        },
        {
          "flow": [],
          "input": {
            "models": []
          },
          "output": [],
          "channelId": "SMS"
        },
        {
          "flow": [],
          "input": {
            "models": []
          },
          "output": [],
          "channelId": "App"
        },
        {
          "flow": [],
          "input": {
            "models": []
          },
          "output": [],
          "channelId": "rSMS"
        },
        {
          "flow": [],
          "input": {
            "models": []
          },
          "output": [],
          "channelId": "VoIP"
        }
      ]
    },
    "defaultPromptTemplate": {
      "id": "defaultPromptTemplate",
      "label": "DefaultPromptTemplate",
      "hasPre": true,
      "hasPost": true,
      "hasRepair": true,
      "description": "This is the default prompt template.",
      "templateType": "prompt",
      "channelConditions": [
        {
          "flow": [],
          "input": {
            "models": []
          },
          "output": [],
          "channelId": "IVR"
        },
        {
          "flow": [],
          "input": {
            "models": []
          },
          "output": [],
          "channelId": "RWC"
        },
        {
          "flow": [],
          "input": {
            "models": []
          },
          "output": [],
          "channelId": "SMS"
        },
        {
          "flow": [],
          "input": {
            "models": []
          },
          "output": [],
          "channelId": "App"
        },
        {
          "flow": [],
          "input": {
            "models": []
          },
          "output": [],
          "channelId": "rSMS"
        },
        {
          "flow": [],
          "input": {
            "models": []
          },
          "output": [],
          "channelId": "VoIP"
        }
      ]
    },
    "YesNoTemplateId": {
      "label": "YesNoQuestion",
      "description": "This is the default ClosedQuestion template",
      "templateType": "closedQuestion",
      "id": "YesNoTemplateId",
      "channelConditions": [
        {
          "channelId": "IVR",
          "output": [],
          "input": {
            "models": [
              {
                "label": "Yes",
                "type": "inputCondition",
                "containsPii": false,
                "id": "57593d7d-87ac-44d1-8746-cd99236d66bb",
                "description": "positive user response",
                "inputType": "Matcher",
                "parser": "yes, yeah, yah"
              },
              {
                "label": "No",
                "type": "inputCondition",
                "containsPii": false,
                "id": "5c5010a6-e794-486a-bbd1-1ea28585e2d2",
                "description": "negative user response",
                "inputType": "Matcher",
                "parser": "no, nope, nah"
              }
            ]
          },
          "flow": []
        },
        {
          "channelId": "RWC",
          "output": [],
          "input": {
            "models": [
              {
                "label": "Yes",
                "type": "inputCondition",
                "containsPii": false,
                "id": "27d16ba4-6ef7-4086-a614-c64110802f11",
                "description": "positive user response",
                "inputType": "Matcher",
                "parser": "yes, yeah, yah"
              },
              {
                "label": "No",
                "type": "inputCondition",
                "containsPii": false,
                "id": "a3fbd2fe-ae1b-4b33-ab5d-fb0753c75bdc",
                "description": "negative user response",
                "inputType": "Matcher",
                "parser": "no, nope, nah"
              }
            ]
          },
          "flow": []
        },
        {
          "channelId": "SMS",
          "output": [],
          "input": {
            "models": [
              {
                "label": "Yes",
                "type": "inputCondition",
                "containsPii": false,
                "id": "f1e0d5e2-408b-4a60-9dd3-eb321e4d65f7",
                "description": "positive user response",
                "inputType": "Matcher",
                "parser": "yes, yeah, yah"
              },
              {
                "label": "No",
                "type": "inputCondition",
                "containsPii": false,
                "id": "1f8d37eb-4d76-425f-bfcc-c46365d5028f",
                "description": "negative user response",
                "inputType": "Matcher",
                "parser": "no, nope, nah"
              }
            ]
          },
          "flow": []
        },
        {
          "channelId": "App",
          "output": [],
          "input": {
            "models": []
          },
          "flow": []
        },
        {
          "channelId": "rSMS",
          "output": [],
          "input": {
            "models": [
              {
                "label": "Yes",
                "type": "inputCondition",
                "containsPii": false,
                "id": "b19e3970-b523-4037-b3f9-827179bc496b",
                "description": "positive user response",
                "inputType": "Matcher",
                "parser": "yes, yeah, yah"
              },
              {
                "label": "No",
                "type": "inputCondition",
                "containsPii": false,
                "id": "b3b831f3-d173-4beb-bb7f-6d49e673e7f3",
                "description": "negative user response",
                "inputType": "Matcher",
                "parser": "no, nope, nah"
              }
            ]
          },
          "flow": []
        },
        {
          "channelId": "VoIP",
          "output": [],
          "input": {
            "models": [
              {
                "label": "Yes",
                "type": "inputCondition",
                "containsPii": false,
                "id": "05522595-72c2-4f60-9f17-62e7061aced0",
                "description": "positive user response",
                "inputType": "Matcher",
                "parser": "yes, yeah, yah"
              },
              {
                "label": "No",
                "type": "inputCondition",
                "containsPii": false,
                "id": "4fd992d8-3ce7-4ce7-a19a-65d9440a2480",
                "description": "negative user response",
                "inputType": "Matcher",
                "parser": "no, nope, nah"
              }
            ]
          },
          "flow": []
        }
      ]
    }
  },
  "description": "",
  "projectType": "None",
  "outcomesBaseline": [],
  "projectObjectVersion": 1,
  "parent": "",
  "parentId": "",
  "destinationPdes": [],
  "cards": {},
  "globalRepairRules": [
    {
      "label": "Out of Context",
      "description": "Out of context response are when the NLU is unable to classify the user's input. The user is asked to repeat.",
      "id": "OOCRule",
      "repairType": "outOfContext",
      "numberOfAttempts": 2,
      "outcome": "fallback"
    },
    {
      "label": "No Response",
      "description": "No response is when the user does not provide any input. The system will reprompt the user to provide a response",
      "id": "NRRule",
      "repairType": "noResponse",
      "numberOfAttempts": 2,
      "outcome": "fallback"
    },
    {
      "label": "Agent Request",
      "id": "ARRule",
      "description": "User requests Agent Transfer will trigger an Escalate flow",
      "repairType": "agentRequest",
      "numberOfAttempts": 1,
      "outcome": "escalate"
    },
    {
      "label": "Maximum Repair before Fallback",
      "id": "MRBFrule",
      "description": "Total number of repairs before triggering a fallback action. Fallback should be offering another channel or escalating to an agent",
      "repairType": "maximum",
      "numberOfAttempts": 3,
      "outcome": "fallback"
    }
  ]
}
