{
    "id": "6f5cee28-8c92-4675-8782-e89f9cd32205",
    "type": "project",
    "cards": {},
    "label": "test-project",
    "parent": "",
    "outcomes": [
        {
            "id": "63a600c7-d407-4234-9160-2c518d8708ab",
            "type": "outcome",
            "color": "#8FBCFF",
            "label": "HITL",
            "reasons": [],
            "percentage": 33,
            "description": "Human in the Loop",
            "outcomeType": "Project",
            "outcomeValue": "Neutral"
        },
        {
            "id": "1fa0dca1-7483-4794-a86f-9c0cae83590a",
            "type": "outcome",
            "color": "#FFBFCB",
            "label": "Abandon",
            "reasons": [],
            "percentage": 33,
            "description": "User exits system without completion point.",
            "outcomeType": "Project",
            "outcomeValue": "Negative"
        },
        {
            "id": "77cc08a6-1140-46f0-800d-a5c76c098004",
            "type": "outcome",
            "color": "#FFED8F",
            "label": "Contained",
            "reasons": [],
            "percentage": 33,
            "description": "User completes task without Human Assistance, Golden Call.",
            "outcomeType": "Project",
            "outcomeValue": "Positive"
        },
        {
            "id": "escalate",
            "type": "outcome",
            "color": "#8FBCFF",
            "label": "Escalate",
            "description": "User is moved to Global Agent Transfer pattern, passing along flow and context.",
            "outcomeType": "Global",
            "outcomeValue": "Neutral",
            "destinationPattern": ""
        },
        {
            "id": "fallback",
            "type": "outcome",
            "color": "#EBBFFF",
            "label": "Fallback",
            "description": "If user is stuck in n or more repairs on the voice channel. Offer alternate channel if available, or switch to easier input.",
            "outcomeType": "Global",
            "outcomeValue": "Neutral",
            "destinationPattern": ""
        }
    ],
    "parentId": "",
    "patterns": [
        {
            "id": "b16561f6-b824-483a-8264-970d57dcba51",
            "type": "pattern",
            "label": "TestPatternName",
            "mapper": [],
            "parent": "testproject",
            "channels": [
                {
                    "id": "RWC",
                    "type": "channel",
                    "label": "RWC",
                    "description": "Rich webchat UI"
                },
                {
                    "id": "IVR",
                    "type": "channel",
                    "label": "IVR",
                    "description": "Voice over the phone"
                }
            ],
            "entities": [],
            "flowData": [
                {
                    "id": "2fdc9dbd-df39-440f-b83c-51c1a84f20d2",
                    "flow": [
                        {
                            "id": "9dbd289e-8dee-4917-888b-1f53cef0bb96",
                            "type": "flowCondition",
                            "label": "default",
                            "order": 1,
                            "toNode": "First",
                            "description": " ",
                            "gotoNodeType": "normal"
                        }
                    ],
                    "type": "node",
                    "label": "Start",
                    "parent": "testproject/TestPatternName",
                    "nodeType": "startPoint",
                    "parentId": "6f5cee28-8c92-4675-8782-e89f9cd32205/b16561f6-b824-483a-8264-970d57dcba51",
                    "description": "Pattern Flow Start",
                    "applyInputsToFlow": false,
                    "nodeDisplayOption": "description"
                },
                {
                    "id": "6425dfe8-841b-4303-a458-bd2761e416b8",
                    "flow": [
                        {
                            "label": "default",
                            "order": 1,
                            "toNode": "Second",
                            "linkType": "down",
                            "description": " ",
                            "gotoNodeType": "normal",
                            "id": "a35f16e0-143e-44cd-bf50-627071aa7fc2",
                            "type": "flowCondition"
                        }
                    ],
                    "type": "node",
                    "label": "First",
                    "nodeType": "subFlow",
                    "subflowId": "3d8857df-1df4-4cc1-b906-a7f94c364e78",
                    "containsPii": false,
                    "description": "RWC channel only",
                    "nodeDisplayOption": "description",
                    "parent": "testproject/TestPatternName",
                    "parentId": "6f5cee28-8c92-4675-8782-e89f9cd32205/b16561f6-b824-483a-8264-970d57dcba51",
                    "applyInputsToFlow": false
                },
                {
                    "id": "8f4f139d-e09e-4e44-bcb9-25d1ce5f84b1",
                    "flow": [
                        {
                            "label": "default",
                            "order": 1,
                            "linkType": "down",
                            "id": "b7ec1882-071e-49ec-9752-24aac48ece7f",
                            "toNode": "addPoint",
                            "type": "flowCondition"
                        }
                    ],
                    "type": "node",
                    "label": "Second",
                    "nodeType": "subFlow",
                    "subflowId": "ba408a0d-ca67-4e04-946f-aa0e440518b9",
                    "containsPii": false,
                    "description": "IVR channel only",
                    "nodeDisplayOption": "description",
                    "parent": "testproject/TestPatternName",
                    "parentId": "6f5cee28-8c92-4675-8782-e89f9cd32205/b16561f6-b824-483a-8264-970d57dcba51",
                    "applyInputsToFlow": false
                }
            ],
            "nodeType": "pattern",
            "outcomes": [
                {
                    "id": "63a600c7-d407-4234-9160-2c518d8708ab",
                    "type": "outcome",
                    "color": "#8FBCFF",
                    "label": "HITL",
                    "reasons": [],
                    "percentage": 33,
                    "description": "Human in the Loop",
                    "outcomeType": "Project",
                    "outcomeValue": "Neutral"
                },
                {
                    "id": "1fa0dca1-7483-4794-a86f-9c0cae83590a",
                    "type": "outcome",
                    "color": "#FFBFCB",
                    "label": "Abandon",
                    "reasons": [],
                    "percentage": 33,
                    "description": "User exits system without completion point.",
                    "outcomeType": "Project",
                    "outcomeValue": "Negative"
                }
            ],
            "parentId": "6f5cee28-8c92-4675-8782-e89f9cd32205",
            "subflows": [
                {
                    "id": "3d8857df-1df4-4cc1-b906-a7f94c364e78",
                    "type": "subFlow",
                    "label": "First",
                    "parent": "testproject/TestPatternName",
                    "parentId": "6f5cee28-8c92-4675-8782-e89f9cd32205/b16561f6-b824-483a-8264-970d57dcba51",
                    "subflows": [],
                    "description": "RWC channel only",
                    "flowDataSet": [
                        {
                            "channel": {
                                "id": "RWC",
                                "type": "channel",
                                "label": "RWC",
                                "description": "Rich webchat UI"
                            },
                            "flowData": [
                                {
                                    "id": "9e22bf1d-ffd6-4e4a-b613-2d1d9c8a2410",
                                    "flow": [
                                        {
                                            "id": "0026b97d-e094-44c1-9dec-e9f875f784f0",
                                            "label": "default",
                                            "order": 1,
                                            "toNode": "addPoint",
                                            "description": "Start Experience",
                                            "type": "flowCondition"
                                        }
                                    ],
                                    "type": "node",
                                    "label": "Start",
                                    "nodeType": "startPoint",
                                    "description": "Pattern Flow Start",
                                    "parent": "testproject/TestPatternName/First",
                                    "parentId": "6f5cee28-8c92-4675-8782-e89f9cd32205/b16561f6-b824-483a-8264-970d57dcba51/3d8857df-1df4-4cc1-b906-a7f94c364e78",
                                    "nodeDisplayOption": "description",
                                    "applyInputsToFlow": false
                                }
                            ]
                        }
                    ]
                },
                {
                    "id": "ba408a0d-ca67-4e04-946f-aa0e440518b9",
                    "type": "subFlow",
                    "label": "Second",
                    "parent": "testproject/TestPatternName",
                    "parentId": "6f5cee28-8c92-4675-8782-e89f9cd32205/b16561f6-b824-483a-8264-970d57dcba51",
                    "subflows": [],
                    "description": "IVR channel only",
                    "flowDataSet": [
                        {
                            "channel": {
                                "id": "IVR",
                                "type": "channel",
                                "label": "IVR",
                                "description": "Voice over the phone"
                            },
                            "flowData": [
                                {
                                    "id": "b9cf797e-c623-49ae-acb3-968a49432199",
                                    "flow": [
                                        {
                                            "id": "51cb64b4-7be1-4758-b236-e2dcafb88bc9",
                                            "label": "default",
                                            "order": 1,
                                            "toNode": "addPoint",
                                            "description": "Start Experience",
                                            "type": "flowCondition"
                                        }
                                    ],
                                    "type": "node",
                                    "label": "Start",
                                    "nodeType": "startPoint",
                                    "description": "Pattern Flow Start",
                                    "parent": "testproject/TestPatternName/Second",
                                    "parentId": "6f5cee28-8c92-4675-8782-e89f9cd32205/b16561f6-b824-483a-8264-970d57dcba51/ba408a0d-ca67-4e04-946f-aa0e440518b9",
                                    "nodeDisplayOption": "description",
                                    "applyInputsToFlow": false
                                }
                            ]
                        }
                    ]
                }
            ],
            "description": "Test Description",
            "patternType": "Agent",
            "entityGroups": [
                {
                    "id": "4e29a632-9205-42fb-aed1-e27c9b7325fd",
                    "type": "entityGroup",
                    "label": "defaultEntityGroup",
                    "dependsOn": [],
                    "primaryKey": "default",
                    "description": "defaultEntityGroup",
                    "sharedEndPoint": false
                }
            ]
        }
    ],
    "templates": {
        "YesNoTemplateId": {
            "id": "YesNoTemplateId",
            "label": "YesNoQuestion",
            "hasPre": true,
            "hasPost": true,
            "hasRepair": true,
            "description": "This is the default ClosedQuestion template",
            "templateType": "closedQuestion",
            "channelConditions": [
                {
                    "flow": [],
                    "input": {
                        "models": [
                            {
                                "id": "0dbacff5-1a0a-484b-891e-64414bc28f1d",
                                "type": "inputCondition",
                                "label": "Yes",
                                "parser": "yes, yeah, yah",
                                "inputType": "Matcher",
                                "containsPii": false,
                                "description": "positive user response"
                            },
                            {
                                "id": "048d5821-34b3-40d4-b663-b0cb0217e192",
                                "type": "inputCondition",
                                "label": "No",
                                "parser": "no, nope, nah",
                                "inputType": "Matcher",
                                "containsPii": false,
                                "description": "negative user response"
                            }
                        ]
                    },
                    "output": [],
                    "channelId": "IVR"
                },
                {
                    "flow": [],
                    "input": {
                        "models": [
                            {
                                "id": "659f5043-ee3c-49a7-a756-92dd8511746e",
                                "type": "inputCondition",
                                "label": "Yes",
                                "parser": "yes, yeah, yah",
                                "inputType": "Matcher",
                                "containsPii": false,
                                "description": "positive user response"
                            },
                            {
                                "id": "9267c713-c3b9-4067-b00c-920b9d8bb8b6",
                                "type": "inputCondition",
                                "label": "No",
                                "parser": "no, nope, nah",
                                "inputType": "Matcher",
                                "containsPii": false,
                                "description": "negative user response"
                            }
                        ]
                    },
                    "output": [],
                    "channelId": "RWC"
                },
                {
                    "flow": [],
                    "input": {
                        "models": [
                            {
                                "id": "22a30bbc-2956-4242-b08b-24eee49984b4",
                                "type": "inputCondition",
                                "label": "Yes",
                                "parser": "yes, yeah, yah",
                                "inputType": "Matcher",
                                "containsPii": false,
                                "description": "positive user response"
                            },
                            {
                                "id": "16068b9c-2ab0-4108-9075-baa24fcb51bc",
                                "type": "inputCondition",
                                "label": "No",
                                "parser": "no, nope, nah",
                                "inputType": "Matcher",
                                "containsPii": false,
                                "description": "negative user response"
                            }
                        ]
                    },
                    "output": [],
                    "channelId": "SMS"
                },
                {
                    "flow": [],
                    "input": {
                        "models": []
                    },
                    "output": [],
                    "channelId": "App"
                },
                {
                    "flow": [],
                    "input": {
                        "models": [
                            {
                                "id": "f6143384-e2a1-486c-97a8-68086af67456",
                                "type": "inputCondition",
                                "label": "Yes",
                                "parser": "yes, yeah, yah",
                                "inputType": "Matcher",
                                "containsPii": false,
                                "description": "positive user response"
                            },
                            {
                                "id": "ea758e6b-1aa3-445a-bba8-09b001e61791",
                                "type": "inputCondition",
                                "label": "No",
                                "parser": "no, nope, nah",
                                "inputType": "Matcher",
                                "containsPii": false,
                                "description": "negative user response"
                            }
                        ]
                    },
                    "output": [],
                    "channelId": "rSMS"
                },
                {
                    "flow": [],
                    "input": {
                        "models": [
                            {
                                "id": "a62ad6db-1e82-4040-b6c8-6f8d45c78ad5",
                                "type": "inputCondition",
                                "label": "Yes",
                                "parser": "yes, yeah, yah",
                                "inputType": "Matcher",
                                "containsPii": false,
                                "description": "positive user response"
                            },
                            {
                                "id": "0a3badd4-7df7-4210-a531-c60b737442b5",
                                "type": "inputCondition",
                                "label": "No",
                                "parser": "no, nope, nah",
                                "inputType": "Matcher",
                                "containsPii": false,
                                "description": "negative user response"
                            }
                        ]
                    },
                    "output": [],
                    "channelId": "VoIP"
                }
            ]
        },
        "defaultOpenTemplate": {
            "id": "defaultOpenTemplate",
            "label": "DefaultOpenTemplate",
            "hasPre": true,
            "hasPost": true,
            "hasRepair": true,
            "description": "This is the default open template.",
            "templateType": "openQuestion",
            "channelConditions": [
                {
                    "flow": [],
                    "input": {
                        "models": []
                    },
                    "output": [],
                    "channelId": "IVR"
                },
                {
                    "flow": [],
                    "input": {
                        "models": []
                    },
                    "output": [],
                    "channelId": "RWC"
                },
                {
                    "flow": [],
                    "input": {
                        "models": []
                    },
                    "output": [],
                    "channelId": "SMS"
                },
                {
                    "flow": [],
                    "input": {
                        "models": []
                    },
                    "output": [],
                    "channelId": "App"
                },
                {
                    "flow": [],
                    "input": {
                        "models": []
                    },
                    "output": [],
                    "channelId": "rSMS"
                },
                {
                    "flow": [],
                    "input": {
                        "models": []
                    },
                    "output": [],
                    "channelId": "VoIP"
                }
            ]
        },
        "defaultClosedTemplate": {
            "id": "defaultClosedTemplate",
            "label": "DefaultClosedTemplate",
            "hasPre": true,
            "hasPost": true,
            "hasRepair": true,
            "description": "This is the default closed template.",
            "templateType": "closedQuestion",
            "channelConditions": [
                {
                    "flow": [],
                    "input": {
                        "models": []
                    },
                    "output": [],
                    "channelId": "IVR"
                },
                {
                    "flow": [],
                    "input": {
                        "models": []
                    },
                    "output": [],
                    "channelId": "RWC"
                },
                {
                    "flow": [],
                    "input": {
                        "models": []
                    },
                    "output": [],
                    "channelId": "SMS"
                },
                {
                    "flow": [],
                    "input": {
                        "models": []
                    },
                    "output": [],
                    "channelId": "App"
                },
                {
                    "flow": [],
                    "input": {
                        "models": []
                    },
                    "output": [],
                    "channelId": "rSMS"
                },
                {
                    "flow": [],
                    "input": {
                        "models": []
                    },
                    "output": [],
                    "channelId": "VoIP"
                }
            ]
        },
        "defaultPromptTemplate": {
            "id": "defaultPromptTemplate",
            "label": "DefaultPromptTemplate",
            "hasPre": true,
            "hasPost": true,
            "hasRepair": true,
            "description": "This is the default prompt template.",
            "templateType": "prompt",
            "channelConditions": [
                {
                    "flow": [],
                    "input": {
                        "models": []
                    },
                    "output": [],
                    "channelId": "IVR"
                },
                {
                    "flow": [],
                    "input": {
                        "models": []
                    },
                    "output": [],
                    "channelId": "RWC"
                },
                {
                    "flow": [],
                    "input": {
                        "models": []
                    },
                    "output": [],
                    "channelId": "SMS"
                },
                {
                    "flow": [],
                    "input": {
                        "models": []
                    },
                    "output": [],
                    "channelId": "App"
                },
                {
                    "flow": [],
                    "input": {
                        "models": []
                    },
                    "output": [],
                    "channelId": "rSMS"
                },
                {
                    "flow": [],
                    "input": {
                        "models": []
                    },
                    "output": [],
                    "channelId": "VoIP"
                }
            ]
        }
    },
    "description": "",
    "projectType": "None",
    "destinationPdes": [],
    "outcomesBaseline": [],
    "globalRepairRules": [
        {
            "id": "OOCRule",
            "label": "Out of Context",
            "outcome": "fallback",
            "repairType": "outOfContext",
            "description": "Out of context response are when the NLU is unable to classify the user's input. The user is asked to repeat.",
            "numberOfAttempts": 2
        },
        {
            "id": "NRRule",
            "label": "No Response",
            "outcome": "fallback",
            "repairType": "noResponse",
            "description": "No response is when the user does not provide any input. The system will reprompt the user to provide a response",
            "numberOfAttempts": 2
        },
        {
            "id": "ARRule",
            "label": "Agent Request",
            "outcome": "escalate",
            "repairType": "agentRequest",
            "description": "User requests Agent Transfer will trigger an Escalate flow",
            "numberOfAttempts": 1
        },
        {
            "id": "MRBFrule",
            "label": "Maximum Repair before Fallback",
            "outcome": "fallback",
            "repairType": "maximum",
            "description": "Total number of repairs before triggering a fallback action. Fallback should be offering another channel or escalating to an agent",
            "numberOfAttempts": 3
        }
    ],
    "projectObjectVersion": 1
}