{
        "id": "6f5cee28-8c92-4675-8782-e89f9cd32205",
        "type": "project",
        "cards": {},
        "label": "test-project",
        "parent": "",
        "outcomes": [
            {
                "id": "63a600c7-d407-4234-9160-2c518d8708ab",
                "type": "outcome",
                "color": "#8FBCFF",
                "label": "HITL",
                "reasons": [],
                "percentage": 33,
                "description": "Human in the Loop",
                "outcomeType": "Project",
                "outcomeValue": "Neutral"
            },
            {
                "id": "1fa0dca1-7483-4794-a86f-9c0cae83590a",
                "type": "outcome",
                "color": "#FFBFCB",
                "label": "Abandon",
                "reasons": [],
                "percentage": 33,
                "description": "User exits system without completion point.",
                "outcomeType": "Project",
                "outcomeValue": "Negative"
            },
            {
                "id": "77cc08a6-1140-46f0-800d-a5c76c098004",
                "type": "outcome",
                "color": "#FFED8F",
                "label": "Contained",
                "reasons": [],
                "percentage": 33,
                "description": "User completes task without Human Assistance, Golden Call.",
                "outcomeType": "Project",
                "outcomeValue": "Positive"
            },
            {
                "id": "escalate",
                "type": "outcome",
                "color": "#8FBCFF",
                "label": "Escalate",
                "description": "User is moved to Global Agent Transfer pattern, passing along flow and context.",
                "outcomeType": "Global",
                "outcomeValue": "Neutral",
                "destinationPattern": ""
            },
            {
                "id": "fallback",
                "type": "outcome",
                "color": "#EBBFFF",
                "label": "Fallback",
                "description": "If user is stuck in n or more repairs on the voice channel. Offer alternate channel if available, or switch to easier input.",
                "outcomeType": "Global",
                "outcomeValue": "Neutral",
                "destinationPattern": ""
            }
        ],
        "parentId": "",
        "patterns": [
            {
                "id": "cd18a517-bd22-4a56-ae3d-ee676868ffe5",
                "type": "pattern",
                "label": "reattach",
                "mapper": [
                    {
                        "id": "6e6b6d15-ef97-41ee-b83b-9fb91c4871a0",
                        "tag": "S_reattach_StartBot",
                        "goto": "skill",
                        "oiType": false,
                        "parent": "testproject/reattach",
                        "payload": "BOT START: [object Object] | GOTO: skill",
                        "project": "test-project",
                        "subFlow": "testproject/reattach",
                        "mapBotID": "",
                        "nodeType": "startPoint",
                        "condition": "StartBot",
                        "elementID": "33e933c4-5539-413f-ae2f-e72ef4a50954",
                        "flowLabel": "",
                        "mapFlowID": "",
                        "mapStepID": "",
                        "nodeLabel": "Start",
                        "containsPii": false,
                        "description": "Start Flow: reattachtestproject/reattach",
                        "elementType": "startPoint",
                        "implemented": false,
                        "loggedCount": 0,
                        "templateLabel": ""
                    },
                    {
                        "id": "f02cf772-cd95-43a7-862b-bc4bd0a76e88",
                        "tag": "F_subflow_default",
                        "goto": "tag",
                        "oiType": false,
                        "parent": "testproject/reattach",
                        "payload": "GOTO: tag",
                        "project": "test-project",
                        "subFlow": "reattach",
                        "mapBotID": "",
                        "nodeType": "subFlow",
                        "condition": "default",
                        "elementID": "e0a09228-7933-4049-ad94-f4039c7f4871",
                        "flowLabel": "",
                        "mapFlowID": "",
                        "mapStepID": "",
                        "nodeLabel": "subflow",
                        "containsPii": false,
                        "description": "",
                        "elementType": "flowCondition",
                        "implemented": false,
                        "loggedCount": 0,
                        "templateLabel": ""
                    },
                    {
                        "id": "4e4f644a-f202-487e-a01b-d5e90a6fc6a5",
                        "tag": "F_subflow_UserAbandonment",
                        "goto": "UserAbandonment",
                        "oiType": false,
                        "parent": "testproject/reattach",
                        "payload": "GOTO: UserAbandonment",
                        "project": "test-project",
                        "subFlow": "reattach",
                        "mapBotID": "",
                        "nodeType": "subFlow",
                        "condition": "UserAbandonment",
                        "elementID": "c23d311b-5e1f-42ee-9576-32087c21d60e",
                        "flowLabel": "",
                        "mapFlowID": "",
                        "mapStepID": "",
                        "nodeLabel": "subflow",
                        "containsPii": false,
                        "elementType": "flowCondition",
                        "implemented": false,
                        "loggedCount": 0,
                        "templateLabel": ""
                    },
                    {
                        "id": "7b3c252a-566f-48ef-b03e-a6e6e9ce5537",
                        "tag": "G_UserAbandonment_subflow",
                        "oiType": false,
                        "parent": "testproject/reattach",
                        "payload": "Outcome: UserAbandonment type=outcomePoint fromNode=subflow condition=UserAbandonment",
                        "project": "test-project",
                        "subFlow": "reattach",
                        "mapBotID": "",
                        "nodeType": "outcomePoint",
                        "condition": "UserAbandonment",
                        "elementID": "UserAbandonment",
                        "flowLabel": "",
                        "mapFlowID": "",
                        "mapStepID": "",
                        "nodeLabel": "UserAbandonment",
                        "containsPii": false,
                        "description": "Global User Abandonment",
                        "elementType": "outcomePoint",
                        "implemented": false,
                        "loggedCount": 0,
                        "templateLabel": ""
                    },
                    {
                        "id": "f0a6da43-6d6c-42ee-8356-a131af509a60",
                        "tag": "F_subflow_Escalate",
                        "goto": "Escalate",
                        "oiType": false,
                        "parent": "testproject/reattach",
                        "payload": "GOTO: Escalate",
                        "project": "test-project",
                        "subFlow": "reattach",
                        "mapBotID": "",
                        "nodeType": "subFlow",
                        "condition": "Escalate",
                        "elementID": "c08f5f59-2c27-403c-8192-a544ef4df92f",
                        "flowLabel": "",
                        "mapFlowID": "",
                        "mapStepID": "",
                        "nodeLabel": "subflow",
                        "containsPii": false,
                        "elementType": "flowCondition",
                        "implemented": false,
                        "loggedCount": 0,
                        "templateLabel": ""
                    },
                    {
                        "id": "71633c51-6830-4261-8f69-608bc94d0577",
                        "tag": "F_subflow_Fallback",
                        "goto": "Fallback",
                        "oiType": false,
                        "parent": "testproject/reattach",
                        "payload": "GOTO: Fallback",
                        "project": "test-project",
                        "subFlow": "reattach",
                        "mapBotID": "",
                        "nodeType": "subFlow",
                        "condition": "Fallback",
                        "elementID": "bfb3d7d7-64ee-493d-a5f4-9ce8f857ffc1",
                        "flowLabel": "",
                        "mapFlowID": "",
                        "mapStepID": "",
                        "nodeLabel": "subflow",
                        "containsPii": false,
                        "elementType": "flowCondition",
                        "implemented": false,
                        "loggedCount": 0,
                        "templateLabel": ""
                    },
                    {
                        "id": "1627b620-6589-425d-aeb5-fc2f3f413b07",
                        "tag": "S_subflow_StartSubFlow",
                        "goto": "closed",
                        "oiType": false,
                        "parent": "testproject/reattach/subflow",
                        "channel": "RWC",
                        "payload": "START Flow: testproject/reattach/subflow | GOTO: closed",
                        "project": "test-project",
                        "subFlow": "testproject/reattach/subflow",
                        "mapBotID": "",
                        "nodeType": "startPoint",
                        "condition": "StartSubFlow",
                        "elementID": "37253de6-e242-468d-b277-105dec28eb6e",
                        "flowLabel": "",
                        "mapFlowID": "",
                        "mapStepID": "",
                        "nodeLabel": "Start",
                        "containsPii": false,
                        "description": "Start Flow: reattachtestproject/reattach/subflow",
                        "elementType": "startPoint",
                        "implemented": false,
                        "loggedCount": 0,
                        "templateLabel": ""
                    },
                    {
                        "id": "e748b726-bfa5-4b6b-b5e1-62cd10781aed",
                        "tag": "O_openq_Default",
                        "oiType": false,
                        "parent": "testproject/reattach/subflow",
                        "channel": "RWC",
                        "payload": "hello",
                        "project": "test-project",
                        "subFlow": "reattach",
                        "mapBotID": "",
                        "nodeType": "openQuestion",
                        "condition": "Default",
                        "elementID": "4b7ddd94-6d0d-40b3-8b17-77957de65c78",
                        "flowLabel": "",
                        "mapFlowID": "",
                        "mapStepID": "",
                        "nodeLabel": "openq",
                        "templateId": "defaultOpenTemplate",
                        "containsPii": null,
                        "elementType": "outputCondition",
                        "implemented": false,
                        "loggedCount": 0,
                        "templateLabel": "DefaultOpenTemplate"
                    },
                    {
                        "id": "69869319-d533-4c9a-8541-7094c08d35bc",
                        "tag": "F_openq_default",
                        "goto": "addPoint",
                        "oiType": false,
                        "parent": "testproject/reattach/subflow",
                        "channel": "RWC",
                        "payload": "GOTO: addPoint",
                        "project": "test-project",
                        "subFlow": "reattach",
                        "mapBotID": "",
                        "nodeType": "openQuestion",
                        "condition": "default",
                        "elementID": "e811ffef-27fc-4552-be02-bb6179dc7e19",
                        "flowLabel": "",
                        "mapFlowID": "",
                        "mapStepID": "",
                        "nodeLabel": "openq",
                        "templateId": "defaultOpenTemplate",
                        "containsPii": false,
                        "elementType": "flowCondition",
                        "implemented": false,
                        "loggedCount": 0,
                        "templateLabel": "DefaultOpenTemplate"
                    },
                    {
                        "id": "4f211d2e-7c57-4745-9cda-5dbe05d95e09",
                        "tag": "F_openq_Repair",
                        "goto": "openq",
                        "oiType": false,
                        "parent": "testproject/reattach/subflow",
                        "channel": "RWC",
                        "payload": "GOTO: openq",
                        "project": "test-project",
                        "subFlow": "reattach",
                        "mapBotID": "",
                        "nodeType": "openQuestion",
                        "condition": "Repair",
                        "elementID": "5857c259-b3e7-40b8-8b8e-f267d6a4a87c",
                        "flowLabel": "",
                        "mapFlowID": "",
                        "mapStepID": "",
                        "nodeLabel": "openq",
                        "templateId": "defaultOpenTemplate",
                        "containsPii": false,
                        "elementType": "flowCondition",
                        "implemented": false,
                        "loggedCount": 0,
                        "templateLabel": "DefaultOpenTemplate"
                    },
                    {
                        "id": "8e3b8e38-ff29-4094-af64-298d64df74a3",
                        "tag": "F_openq_UserAbandonment",
                        "goto": "UserAbandonment",
                        "oiType": false,
                        "parent": "testproject/reattach/subflow",
                        "channel": "RWC",
                        "payload": "GOTO: UserAbandonment",
                        "project": "test-project",
                        "subFlow": "reattach",
                        "mapBotID": "",
                        "nodeType": "openQuestion",
                        "condition": "UserAbandonment",
                        "elementID": "f16e359b-3437-4102-b0b6-346eeff33b23",
                        "flowLabel": "",
                        "mapFlowID": "",
                        "mapStepID": "",
                        "nodeLabel": "openq",
                        "templateId": "defaultOpenTemplate",
                        "containsPii": false,
                        "elementType": "flowCondition",
                        "implemented": false,
                        "loggedCount": 0,
                        "templateLabel": "DefaultOpenTemplate"
                    },
                    {
                        "id": "53fbb7a4-39bd-4750-a749-ea2faaac44a1",
                        "tag": "E_UserAbandonment_openq",
                        "oiType": false,
                        "parent": "testproject/reattach/subflow",
                        "channel": "RWC",
                        "payload": "Endpoint: UserAbandonment fromNode=openq condition=UserAbandonment",
                        "project": "test-project",
                        "subFlow": "reattach",
                        "mapBotID": "",
                        "nodeType": "endPoint",
                        "condition": "UserAbandonment",
                        "flowLabel": "",
                        "mapFlowID": "",
                        "mapStepID": "",
                        "nodeLabel": "UserAbandonment",
                        "templateId": "defaultOpenTemplate",
                        "containsPii": false,
                        "elementType": "endPoint",
                        "implemented": false,
                        "loggedCount": 0,
                        "templateLabel": "DefaultOpenTemplate"
                    },
                    {
                        "id": "41977223-d880-4960-9d1b-7961488aad4f",
                        "tag": "F_openq_Escalate",
                        "goto": "Escalate",
                        "oiType": false,
                        "parent": "testproject/reattach/subflow",
                        "channel": "RWC",
                        "payload": "GOTO: Escalate",
                        "project": "test-project",
                        "subFlow": "reattach",
                        "mapBotID": "",
                        "nodeType": "openQuestion",
                        "condition": "Escalate",
                        "elementID": "73daa49d-cc06-43f2-882c-2bd52e64cd44",
                        "flowLabel": "",
                        "mapFlowID": "",
                        "mapStepID": "",
                        "nodeLabel": "openq",
                        "templateId": "defaultOpenTemplate",
                        "containsPii": false,
                        "elementType": "flowCondition",
                        "implemented": false,
                        "loggedCount": 0,
                        "templateLabel": "DefaultOpenTemplate"
                    },
                    {
                        "id": "02baf042-5c2d-4920-833a-97214bb569aa",
                        "tag": "F_openq_Fallback",
                        "goto": "Fallback",
                        "oiType": false,
                        "parent": "testproject/reattach/subflow",
                        "channel": "RWC",
                        "payload": "GOTO: Fallback",
                        "project": "test-project",
                        "subFlow": "reattach",
                        "mapBotID": "",
                        "nodeType": "openQuestion",
                        "condition": "Fallback",
                        "elementID": "485173a6-5026-4fce-8816-7b6b8a8dfee7",
                        "flowLabel": "",
                        "mapFlowID": "",
                        "mapStepID": "",
                        "nodeLabel": "openq",
                        "templateId": "defaultOpenTemplate",
                        "containsPii": false,
                        "elementType": "flowCondition",
                        "implemented": false,
                        "loggedCount": 0,
                        "templateLabel": "DefaultOpenTemplate"
                    },
                    {
                        "id": "fb33ec09-44d6-40b9-b378-bc3074e5882f",
                        "tag": "I_closed_OfferParser",
                        "oiType": false,
                        "parent": "testproject/reattach/subflow",
                        "channel": "RWC",
                        "payload": "Parser: OfferParser NLUModel",
                        "project": "test-project",
                        "subFlow": "reattach",
                        "mapBotID": "",
                        "nodeType": "closedQuestion",
                        "condition": "OfferParser",
                        "elementID": "877c890f-c5c3-4dbc-86f5-85d53d3b4681",
                        "flowLabel": "",
                        "mapFlowID": "",
                        "mapStepID": "",
                        "nodeLabel": "closed",
                        "templateId": "defaultClosedTemplate",
                        "containsPii": false,
                        "elementType": "inputParser",
                        "implemented": false,
                        "loggedCount": 0,
                        "templateLabel": "DefaultClosedTemplate"
                    },
                    {
                        "id": "b67a2d67-f90f-4ecc-b298-04868f7baed3",
                        "tag": "F_closed_default",
                        "goto": "addPoint",
                        "oiType": false,
                        "parent": "testproject/reattach/subflow",
                        "channel": "RWC",
                        "payload": "GOTO: addPoint",
                        "project": "test-project",
                        "subFlow": "reattach",
                        "mapBotID": "",
                        "nodeType": "closedQuestion",
                        "condition": "default",
                        "elementID": "fda9c786-5be1-4de6-9b90-9651ddc87b7b",
                        "flowLabel": "",
                        "mapFlowID": "",
                        "mapStepID": "",
                        "nodeLabel": "closed",
                        "templateId": "defaultClosedTemplate",
                        "containsPii": false,
                        "elementType": "flowCondition",
                        "implemented": false,
                        "loggedCount": 0,
                        "templateLabel": "DefaultClosedTemplate"
                    },
                    {
                        "id": "c8596dd5-bac5-4e4c-a105-e371540b29e4",
                        "tag": "F_closed_Repair",
                        "goto": "closed",
                        "oiType": false,
                        "parent": "testproject/reattach/subflow",
                        "channel": "RWC",
                        "payload": "GOTO: closed",
                        "project": "test-project",
                        "subFlow": "reattach",
                        "mapBotID": "",
                        "nodeType": "closedQuestion",
                        "condition": "Repair",
                        "elementID": "7a1956ea-7317-417f-9831-78e332a65b83",
                        "flowLabel": "",
                        "mapFlowID": "",
                        "mapStepID": "",
                        "nodeLabel": "closed",
                        "templateId": "defaultClosedTemplate",
                        "containsPii": false,
                        "elementType": "flowCondition",
                        "implemented": false,
                        "loggedCount": 0,
                        "templateLabel": "DefaultClosedTemplate"
                    },
                    {
                        "id": "8b69ccf3-bf12-409c-ad2b-333ba33f905c",
                        "tag": "F_closed_UserAbandonment",
                        "goto": "UserAbandonment",
                        "oiType": false,
                        "parent": "testproject/reattach/subflow",
                        "channel": "RWC",
                        "payload": "GOTO: UserAbandonment",
                        "project": "test-project",
                        "subFlow": "reattach",
                        "mapBotID": "",
                        "nodeType": "closedQuestion",
                        "condition": "UserAbandonment",
                        "elementID": "f16e359b-3437-4102-b0b6-346eeff33b23",
                        "flowLabel": "",
                        "mapFlowID": "",
                        "mapStepID": "",
                        "nodeLabel": "closed",
                        "templateId": "defaultClosedTemplate",
                        "containsPii": false,
                        "elementType": "flowCondition",
                        "implemented": false,
                        "loggedCount": 0,
                        "templateLabel": "DefaultClosedTemplate"
                    },
                    {
                        "id": "38ac03a7-0d98-44ad-884e-77065de6e3fc",
                        "tag": "E_UserAbandonment_closed",
                        "oiType": false,
                        "parent": "testproject/reattach/subflow",
                        "channel": "RWC",
                        "payload": "Endpoint: UserAbandonment fromNode=closed condition=UserAbandonment",
                        "project": "test-project",
                        "subFlow": "reattach",
                        "mapBotID": "",
                        "nodeType": "endPoint",
                        "condition": "UserAbandonment",
                        "flowLabel": "",
                        "mapFlowID": "",
                        "mapStepID": "",
                        "nodeLabel": "UserAbandonment",
                        "templateId": "defaultClosedTemplate",
                        "containsPii": false,
                        "elementType": "endPoint",
                        "implemented": false,
                        "loggedCount": 0,
                        "templateLabel": "DefaultClosedTemplate"
                    },
                    {
                        "id": "36ee44da-6629-469e-8ec6-5c3e40e5cb5e",
                        "tag": "F_closed_Escalate",
                        "goto": "Escalate",
                        "oiType": false,
                        "parent": "testproject/reattach/subflow",
                        "channel": "RWC",
                        "payload": "GOTO: Escalate",
                        "project": "test-project",
                        "subFlow": "reattach",
                        "mapBotID": "",
                        "nodeType": "closedQuestion",
                        "condition": "Escalate",
                        "elementID": "73daa49d-cc06-43f2-882c-2bd52e64cd44",
                        "flowLabel": "",
                        "mapFlowID": "",
                        "mapStepID": "",
                        "nodeLabel": "closed",
                        "templateId": "defaultClosedTemplate",
                        "containsPii": false,
                        "elementType": "flowCondition",
                        "implemented": false,
                        "loggedCount": 0,
                        "templateLabel": "DefaultClosedTemplate"
                    },
                    {
                        "id": "2849c6b0-3690-4e19-a27a-85a016fb1ab7",
                        "tag": "F_closed_Fallback",
                        "goto": "Fallback",
                        "oiType": false,
                        "parent": "testproject/reattach/subflow",
                        "channel": "RWC",
                        "payload": "GOTO: Fallback",
                        "project": "test-project",
                        "subFlow": "reattach",
                        "mapBotID": "",
                        "nodeType": "closedQuestion",
                        "condition": "Fallback",
                        "elementID": "485173a6-5026-4fce-8816-7b6b8a8dfee7",
                        "flowLabel": "",
                        "mapFlowID": "",
                        "mapStepID": "",
                        "nodeLabel": "closed",
                        "templateId": "defaultClosedTemplate",
                        "containsPii": false,
                        "elementType": "flowCondition",
                        "implemented": false,
                        "loggedCount": 0,
                        "templateLabel": "DefaultClosedTemplate"
                    },
                    {
                        "id": "4785a446-caa8-40f4-be94-47850e2bf149",
                        "tag": "O_skill_default",
                        "oiType": false,
                        "parent": "testproject/reattach",
                        "payload": "What can I do for you today?",
                        "project": "test-project",
                        "subFlow": "reattach",
                        "mapBotID": "",
                        "nodeType": "routerMenu",
                        "condition": "default",
                        "elementID": "11a5312e-bb11-4c11-92bd-ff68089d60a3",
                        "flowLabel": "",
                        "mapFlowID": "",
                        "mapStepID": "",
                        "nodeLabel": "skill",
                        "containsPii": null,
                        "description": "",
                        "elementType": "outputCondition",
                        "implemented": false,
                        "loggedCount": 0,
                        "templateLabel": ""
                    },
                    {
                        "id": "0ef33c9e-432d-4866-9dd9-82bee5864e5f",
                        "tag": "F_skill_default",
                        "goto": "tag",
                        "oiType": false,
                        "parent": "testproject/reattach",
                        "payload": "GOTO: tag",
                        "project": "test-project",
                        "subFlow": "reattach",
                        "mapBotID": "",
                        "nodeType": "routerMenu",
                        "condition": "default",
                        "elementID": "63f28611-f20b-4021-a4ca-0f71d4bbfe36",
                        "flowLabel": "",
                        "mapFlowID": "",
                        "mapStepID": "",
                        "nodeLabel": "skill",
                        "containsPii": false,
                        "description": "",
                        "elementType": "flowCondition",
                        "implemented": false,
                        "loggedCount": 0,
                        "templateLabel": ""
                    },
                    {
                        "id": "693f52b6-09a7-4f7a-873a-2dff4daf9b3a",
                        "tag": "F_skill_trrrrr",
                        "goto": "subflow",
                        "oiType": false,
                        "parent": "testproject/reattach",
                        "payload": "GOTO: subflow",
                        "project": "test-project",
                        "subFlow": "reattach",
                        "mapBotID": "",
                        "nodeType": "routerMenu",
                        "condition": "trrrrr",
                        "elementID": "1f4ef812-e39e-49c1-b7cd-18287c624e06",
                        "flowLabel": "",
                        "mapFlowID": "",
                        "mapStepID": "",
                        "nodeLabel": "skill",
                        "containsPii": false,
                        "description": "",
                        "elementType": "flowCondition",
                        "implemented": false,
                        "loggedCount": 0,
                        "templateLabel": ""
                    },
                    {
                        "id": "fd426b14-40dc-4af0-bc3d-e3716e9b3ca1",
                        "tag": "F_skill_UserAbandonment",
                        "goto": "UserAbandonment",
                        "oiType": false,
                        "parent": "testproject/reattach",
                        "payload": "GOTO: UserAbandonment",
                        "project": "test-project",
                        "subFlow": "reattach",
                        "mapBotID": "",
                        "nodeType": "routerMenu",
                        "condition": "UserAbandonment",
                        "elementID": "c23d311b-5e1f-42ee-9576-32087c21d60e",
                        "flowLabel": "",
                        "mapFlowID": "",
                        "mapStepID": "",
                        "nodeLabel": "skill",
                        "containsPii": false,
                        "elementType": "flowCondition",
                        "implemented": false,
                        "loggedCount": 0,
                        "templateLabel": ""
                    },
                    {
                        "id": "34cd4758-09c3-44d5-b70f-5bbb3e549ba9",
                        "tag": "G_UserAbandonment_skill",
                        "oiType": false,
                        "parent": "testproject/reattach",
                        "payload": "Outcome: UserAbandonment type=outcomePoint fromNode=skill condition=UserAbandonment",
                        "project": "test-project",
                        "subFlow": "reattach",
                        "mapBotID": "",
                        "nodeType": "outcomePoint",
                        "condition": "UserAbandonment",
                        "elementID": "UserAbandonment",
                        "flowLabel": "",
                        "mapFlowID": "",
                        "mapStepID": "",
                        "nodeLabel": "UserAbandonment",
                        "containsPii": false,
                        "description": "Global User Abandonment",
                        "elementType": "outcomePoint",
                        "implemented": false,
                        "loggedCount": 0,
                        "templateLabel": ""
                    },
                    {
                        "id": "ca969ede-6193-4254-a93d-2119d3d926b8",
                        "tag": "F_skill_Escalate",
                        "goto": "Escalate",
                        "oiType": false,
                        "parent": "testproject/reattach",
                        "payload": "GOTO: Escalate",
                        "project": "test-project",
                        "subFlow": "reattach",
                        "mapBotID": "",
                        "nodeType": "routerMenu",
                        "condition": "Escalate",
                        "elementID": "c08f5f59-2c27-403c-8192-a544ef4df92f",
                        "flowLabel": "",
                        "mapFlowID": "",
                        "mapStepID": "",
                        "nodeLabel": "skill",
                        "containsPii": false,
                        "elementType": "flowCondition",
                        "implemented": false,
                        "loggedCount": 0,
                        "templateLabel": ""
                    },
                    {
                        "id": "62be30ba-f1eb-459b-9c23-3c6dbf80d0db",
                        "tag": "F_skill_Fallback",
                        "goto": "Fallback",
                        "oiType": false,
                        "parent": "testproject/reattach",
                        "payload": "GOTO: Fallback",
                        "project": "test-project",
                        "subFlow": "reattach",
                        "mapBotID": "",
                        "nodeType": "routerMenu",
                        "condition": "Fallback",
                        "elementID": "bfb3d7d7-64ee-493d-a5f4-9ce8f857ffc1",
                        "flowLabel": "",
                        "mapFlowID": "",
                        "mapStepID": "",
                        "nodeLabel": "skill",
                        "containsPii": false,
                        "elementType": "flowCondition",
                        "implemented": false,
                        "loggedCount": 0,
                        "templateLabel": ""
                    },
                    {
                        "id": "eabf198c-7ff2-410a-80a1-0de6fad604c4",
                        "tag": "F_tag_default",
                        "goto": "Contained",
                        "oiType": false,
                        "parent": "testproject/reattach",
                        "payload": "GOTO: Contained",
                        "project": "test-project",
                        "subFlow": "reattach",
                        "mapBotID": "",
                        "nodeType": "tagNode",
                        "condition": "default",
                        "elementID": "894715ff-d73a-4373-a076-5c176d75affa",
                        "flowLabel": "",
                        "mapFlowID": "",
                        "mapStepID": "",
                        "nodeLabel": "tag",
                        "containsPii": false,
                        "description": "",
                        "elementType": "flowCondition",
                        "implemented": false,
                        "loggedCount": 0,
                        "templateLabel": ""
                    },
                    {
                        "id": "4a050b15-e5bf-456b-8d18-9293b9148b41",
                        "tag": "G_Contained_tag",
                        "oiType": false,
                        "parent": "testproject/reattach",
                        "payload": "Outcome: Contained type=Positive fromNode=tag condition=default",
                        "project": "test-project",
                        "subFlow": "reattach",
                        "mapBotID": "",
                        "nodeType": "outcomePoint",
                        "condition": "default",
                        "elementID": "77cc08a6-1140-46f0-800d-a5c76c098004",
                        "flowLabel": "",
                        "mapFlowID": "",
                        "mapStepID": "",
                        "nodeLabel": "Contained",
                        "containsPii": false,
                        "description": "User completes task without Human Assistance, Golden Call.",
                        "elementType": "outcomePoint",
                        "implemented": false,
                        "loggedCount": 0,
                        "templateLabel": ""
                    },
                    {
                        "id": "043c7873-1db4-4064-bb09-ee51e186b0d4",
                        "tag": "F_tag_UserAbandonment",
                        "goto": "UserAbandonment",
                        "oiType": false,
                        "parent": "testproject/reattach",
                        "payload": "GOTO: UserAbandonment",
                        "project": "test-project",
                        "subFlow": "reattach",
                        "mapBotID": "",
                        "nodeType": "tagNode",
                        "condition": "UserAbandonment",
                        "elementID": "c23d311b-5e1f-42ee-9576-32087c21d60e",
                        "flowLabel": "",
                        "mapFlowID": "",
                        "mapStepID": "",
                        "nodeLabel": "tag",
                        "containsPii": false,
                        "elementType": "flowCondition",
                        "implemented": false,
                        "loggedCount": 0,
                        "templateLabel": ""
                    },
                    {
                        "id": "867f9e4e-d48c-4462-978e-fb4d0e50e001",
                        "tag": "G_UserAbandonment_tag",
                        "oiType": false,
                        "parent": "testproject/reattach",
                        "payload": "Outcome: UserAbandonment type=outcomePoint fromNode=tag condition=UserAbandonment",
                        "project": "test-project",
                        "subFlow": "reattach",
                        "mapBotID": "",
                        "nodeType": "outcomePoint",
                        "condition": "UserAbandonment",
                        "elementID": "UserAbandonment",
                        "flowLabel": "",
                        "mapFlowID": "",
                        "mapStepID": "",
                        "nodeLabel": "UserAbandonment",
                        "containsPii": false,
                        "description": "Global User Abandonment",
                        "elementType": "outcomePoint",
                        "implemented": false,
                        "loggedCount": 0,
                        "templateLabel": ""
                    },
                    {
                        "id": "03132a37-836d-4b2f-a051-132dff877604",
                        "tag": "F_tag_Escalate",
                        "goto": "Escalate",
                        "oiType": false,
                        "parent": "testproject/reattach",
                        "payload": "GOTO: Escalate",
                        "project": "test-project",
                        "subFlow": "reattach",
                        "mapBotID": "",
                        "nodeType": "tagNode",
                        "condition": "Escalate",
                        "elementID": "c08f5f59-2c27-403c-8192-a544ef4df92f",
                        "flowLabel": "",
                        "mapFlowID": "",
                        "mapStepID": "",
                        "nodeLabel": "tag",
                        "containsPii": false,
                        "elementType": "flowCondition",
                        "implemented": false,
                        "loggedCount": 0,
                        "templateLabel": ""
                    },
                    {
                        "id": "1c5ea61d-ac0f-4a37-93d6-7e15bbbf79c8",
                        "tag": "F_tag_Fallback",
                        "goto": "Fallback",
                        "oiType": false,
                        "parent": "testproject/reattach",
                        "payload": "GOTO: Fallback",
                        "project": "test-project",
                        "subFlow": "reattach",
                        "mapBotID": "",
                        "nodeType": "tagNode",
                        "condition": "Fallback",
                        "elementID": "bfb3d7d7-64ee-493d-a5f4-9ce8f857ffc1",
                        "flowLabel": "",
                        "mapFlowID": "",
                        "mapStepID": "",
                        "nodeLabel": "tag",
                        "containsPii": false,
                        "elementType": "flowCondition",
                        "implemented": false,
                        "loggedCount": 0,
                        "templateLabel": ""
                    }
                ],
                "parent": "testproject",
                "channels": [
                    {
                        "id": "RWC",
                        "type": "channel",
                        "label": "RWC",
                        "description": "Rich webchat UI"
                    }
                ],
                "entities": [],
                "flowData": [
                    {
                        "id": "33e933c4-5539-413f-ae2f-e72ef4a50954",
                        "flow": [
                            {
                                "id": "ac985b40-da1f-4007-98f9-a9d09e77e619",
                                "type": "flowCondition",
                                "label": "default",
                                "order": 1,
                                "toNode": "addPoint",
                                "description": "",
                                "gotoNodeType": "addPoint"
                            }
                        ],
                        "type": "node",
                        "label": "Start",
                        "parent": "testproject/reattach",
                        "nodeType": "startPoint",
                        "parentId": "6f5cee28-8c92-4675-8782-e89f9cd32205/cd18a517-bd22-4a56-ae3d-ee676868ffe5",
                        "description": "Pattern Flow Start",
                        "applyInputsToFlow": false,
                        "nodeDisplayOption": "description"
                    },
                    {
                        "id": "234c7f50-e29e-431e-81ad-3cd095e524d1",
                        "flow": [
                            {
                                "id": "4e64a7b9-65eb-4937-891f-10746a8c1089",
                                "type": "flowCondition",
                                "label": "default",
                                "order": 1,
                                "toNode": "addPoint",
                                "linkType": "down",
                                "description": "",
                                "gotoNodeType": "addPoint"
                            }
                        ],
                        "type": "node",
                        "label": "subflowNode",
                        "parent": "testproject/reattach",
                        "nodeType": "subFlow",
                        "parentId": "6f5cee28-8c92-4675-8782-e89f9cd32205/cd18a517-bd22-4a56-ae3d-ee676868ffe5",
                        "subflowId": "77a31652-f0dc-4620-b8da-55c0457f6707",
                        "containsPii": false,
                        "description": "",
                        "isNotConnected": true,
                        "applyInputsToFlow": false,
                        "nodeDisplayOption": "description"
                    },
                    {
                        "id": "4e7d517b-08f4-4743-8794-12f378a862d4",
                        "flow": [
                            {
                                "id": "019d647e-2417-4227-9c90-e448b7ed73ae",
                                "type": "flowCondition",
                                "label": "default",
                                "order": 1,
                                "toNode": "addPoint",
                                "linkType": "down",
                                "gotoNodeType": "addPoint"
                            }
                        ],
                        "type": "node",
                        "label": "skillNode",
                        "output": [
                            {
                                "id": "c61b2005-4e33-4be7-901a-cbfdde6fad33",
                                "type": "outputCondition",
                                "label": "default",
                                "content": [
                                    {
                                        "id": "99cf2406-f3c6-408f-8226-5c6be43f9a28",
                                        "value": "What can I do for you today?"
                                    }
                                ],
                                "description": ""
                            }
                        ],
                        "parent": "testproject/reattach",
                        "skills": [],
                        "channels": [],
                        "nodeType": "routerMenu",
                        "parentId": "6f5cee28-8c92-4675-8782-e89f9cd32205/cd18a517-bd22-4a56-ae3d-ee676868ffe5",
                        "description": "Skill Router Description",
                        "isNotConnected": true,
                        "applyInputsToFlow": false,
                        "nodeDisplayOption": "description"
                    },
                    {
                        "id": "b13b809e-d545-460b-8921-6abdab5270e3",
                        "flow": [
                            {
                                "id": "5db47662-0339-4220-a80a-33dc34dc48b1",
                                "type": "flowCondition",
                                "label": "default",
                                "order": 1,
                                "linkType": "down",
                                "gotoNodeType": "addPoint",
                                "toNode": "addPoint"
                            }
                        ],
                        "type": "node",
                        "label": "tagNode",
                        "parent": "testproject/reattach",
                        "nodeType": "tagNode",
                        "parentId": "6f5cee28-8c92-4675-8782-e89f9cd32205/cd18a517-bd22-4a56-ae3d-ee676868ffe5",
                        "containsPii": false,
                        "description": "Tagnode Description",
                        "isNotConnected": true,
                        "applyInputsToFlow": false,
                        "nodeDisplayOption": "description"
                    }
                ],
                "nodeType": "pattern",
                "outcomes": [
                    {
                        "id": "77cc08a6-1140-46f0-800d-a5c76c098004",
                        "type": "outcome",
                        "color": "#FFED8F",
                        "label": "Contained",
                        "reasons": [],
                        "percentage": 33,
                        "description": "User completes task without Human Assistance, Golden Call.",
                        "outcomeType": "Project",
                        "outcomeValue": "Positive"
                    }
                ],
                "parentId": "6f5cee28-8c92-4675-8782-e89f9cd32205",
                "subflows": [
                    {
                        "id": "ba07fba0-55d9-4576-8622-c1cf8e23d914",
                        "type": "subFlow",
                        "label": "subflow",
                        "parent": "testproject/reattach",
                        "parentId": "6f5cee28-8c92-4675-8782-e89f9cd32205/cd18a517-bd22-4a56-ae3d-ee676868ffe5",
                        "subflows": [],
                        "description": "",
                        "flowDataSet": [
                            {
                                "channel": {
                                    "id": "RWC",
                                    "type": "channel",
                                    "label": "RWC",
                                    "description": "Rich webchat UI"
                                },
                                "flowData": [
                                    {
                                        "id": "13d41c7e-2f2f-4cde-928c-e239f1956175",
                                        "flow": [
                                            {
                                                "id": "0d501088-b060-4a53-b8c5-96db7d77bcd6",
                                                "type": "flowCondition",
                                                "label": "default",
                                                "order": 1,
                                                "toNode": "www",
                                                "description": "",
                                                "gotoNodeType": "normal"
                                            }
                                        ],
                                        "type": "node",
                                        "label": "Start",
                                        "parent": "testproject/reattach/subflow",
                                        "nodeType": "startPoint",
                                        "parentId": "6f5cee28-8c92-4675-8782-e89f9cd32205/cd18a517-bd22-4a56-ae3d-ee676868ffe5/ba07fba0-55d9-4576-8622-c1cf8e23d914",
                                        "description": "Pattern Flow Start",
                                        "applyInputsToFlow": false,
                                        "nodeDisplayOption": "description"
                                    },
                                    {
                                        "id": "43f22657-803a-4c5a-971c-2090b22c465e",
                                        "flow": [
                                            {
                                                "id": "b37a2dc5-e9cc-4bd2-b81d-c4d0966f8de6",
                                                "type": "flowCondition",
                                                "label": "default",
                                                "order": 1,
                                                "toNode": "Escalate",
                                                "linkType": "down",
                                                "description": "",
                                                "gotoNodeType": "outcomePoint"
                                            },
                                            {
                                                "id": "7eb6c098-748f-4b56-aad0-625b6385c268",
                                                "type": "flowCondition",
                                                "label": "Repair",
                                                "order": 2,
                                                "toNode": "www",
                                                "linkType": "loop"
                                            }
                                        ],
                                        "type": "node",
                                        "input": [
                                            {
                                                "id": "fc9e78d2-6850-4e67-a0c2-b108df8d3a1c",
                                                "type": "inputCondition",
                                                "label": "OfferParser",
                                                "order": 1,
                                                "parser": "HelloModel",
                                                "inputType": "NLUModel"
                                            }
                                        ],
                                        "label": "www",
                                        "output": [],
                                        "parent": "testproject/reattach/subflow",
                                        "nodeType": "closedQuestion",
                                        "parentId": "6f5cee28-8c92-4675-8782-e89f9cd32205/cd18a517-bd22-4a56-ae3d-ee676868ffe5/ba07fba0-55d9-4576-8622-c1cf8e23d914",
                                        "nodeRules": {
                                            "repairRules": [],
                                            "useGlobalRepairs": true,
                                            "useGlobalEscalate": true,
                                            "useGlobalFallback": true
                                        },
                                        "templateId": "defaultClosedTemplate",
                                        "containsPii": false,
                                        "description": "Closed Question Description",
                                        "channelSettings": {
                                            "acceptTextInput": true,
                                            "openInputButtonLabel": "",
                                            "useOpenInputControls": false,
                                            "closedInputButtonType": "Carousel",
                                            "openInputPlaceholderText": ""
                                        },
                                        "applyInputsToFlow": false,
                                        "nodeDisplayOption": "description"
                                    }
                                ]
                            }
                        ]
                    },
                    {
                        "id": "c9522f23-ef63-4673-beb3-b96a1976fd4b",
                        "type": "subFlow",
                        "label": "ssssss",
                        "parent": "testproject/reattach",
                        "parentId": "6f5cee28-8c92-4675-8782-e89f9cd32205/cd18a517-bd22-4a56-ae3d-ee676868ffe5",
                        "subflows": [],
                        "description": "",
                        "flowDataSet": [
                            {
                                "channel": {
                                    "id": "RWC",
                                    "type": "channel",
                                    "label": "RWC",
                                    "description": "Rich webchat UI"
                                },
                                "flowData": [
                                    {
                                        "id": "9c2574f9-c6f8-4caf-938e-e143a926b099",
                                        "flow": [
                                            {
                                                "id": "e6a17fe2-db9f-4a9c-b3c0-311ca9003330",
                                                "type": "flowCondition",
                                                "label": "default",
                                                "order": 1,
                                                "toNode": "addPoint",
                                                "description": "Start Experience"
                                            }
                                        ],
                                        "type": "node",
                                        "label": "Start",
                                        "parent": "testproject/reattach/ssssss",
                                        "nodeType": "startPoint",
                                        "parentId": "6f5cee28-8c92-4675-8782-e89f9cd32205/cd18a517-bd22-4a56-ae3d-ee676868ffe5/c9522f23-ef63-4673-beb3-b96a1976fd4b",
                                        "description": "Pattern Flow Start",
                                        "applyInputsToFlow": false,
                                        "nodeDisplayOption": "description"
                                    }
                                ]
                            }
                        ]
                    },
                    {
                        "id": "f36fae85-636e-4b38-9c5f-34621bab411c",
                        "type": "subFlow",
                        "label": "subflow",
                        "parent": "testproject/reattach",
                        "parentId": "6f5cee28-8c92-4675-8782-e89f9cd32205/cd18a517-bd22-4a56-ae3d-ee676868ffe5",
                        "subflows": [],
                        "description": "",
                        "flowDataSet": [
                            {
                                "channel": {
                                    "id": "RWC",
                                    "type": "channel",
                                    "label": "RWC",
                                    "description": "Rich webchat UI"
                                },
                                "flowData": [
                                    {
                                        "id": "37253de6-e242-468d-b277-105dec28eb6e",
                                        "flow": [
                                            {
                                                "id": "a85f59b8-3415-433c-8cce-104097d749ea",
                                                "type": "flowCondition",
                                                "label": "default",
                                                "order": 1,
                                                "toNode": "closed",
                                                "description": "",
                                                "gotoNodeType": "normal"
                                            },
                                            {
                                                "id": "d2d3044d-da9b-451a-84f5-88c43e1870f6",
                                                "type": "flowCondition",
                                                "label": "custom",
                                                "toNode": "openq",
                                                "linkType": true,
                                                "description": "",
                                                "gotoNodeType": "normal"
                                            }
                                        ],
                                        "type": "node",
                                        "label": "Start",
                                        "parent": "testproject/reattach/subflow",
                                        "nodeType": "startPoint",
                                        "parentId": "6f5cee28-8c92-4675-8782-e89f9cd32205/cd18a517-bd22-4a56-ae3d-ee676868ffe5/f36fae85-636e-4b38-9c5f-34621bab411c",
                                        "description": "Pattern Flow Start",
                                        "applyInputsToFlow": false,
                                        "nodeDisplayOption": "description"
                                    },
                                    {
                                        "id": "ac2368a9-b70f-412f-b4d1-aa9862243db3",
                                        "flow": [
                                            {
                                                "id": "e811ffef-27fc-4552-be02-bb6179dc7e19",
                                                "type": "flowCondition",
                                                "label": "default",
                                                "order": 1,
                                                "toNode": "addPoint",
                                                "linkType": "down"
                                            },
                                            {
                                                "id": "5857c259-b3e7-40b8-8b8e-f267d6a4a87c",
                                                "type": "flowCondition",
                                                "label": "Repair",
                                                "order": 2,
                                                "toNode": "openq",
                                                "linkType": "loop"
                                            }
                                        ],
                                        "type": "node",
                                        "input": [],
                                        "label": "openq",
                                        "output": [
                                            {
                                                "id": "4b7ddd94-6d0d-40b3-8b17-77957de65c78",
                                                "type": "outputCondition",
                                                "label": "Default",
                                                "edited": true,
                                                "content": [
                                                    {
                                                        "id": "f5bf68c8-df92-4f80-8e5f-e9192461cdcf",
                                                        "value": "hello",
                                                        "channel": "RWC",
                                                        "dynamic": false,
                                                        "contentType": "Prompt"
                                                    }
                                                ],
                                                "template": false
                                            }
                                        ],
                                        "parent": "testproject/reattach/subflow",
                                        "nodeType": "openQuestion",
                                        "parentId": "6f5cee28-8c92-4675-8782-e89f9cd32205/cd18a517-bd22-4a56-ae3d-ee676868ffe5/f36fae85-636e-4b38-9c5f-34621bab411c",
                                        "nodeRules": {
                                            "repairRules": [],
                                            "useGlobalRepairs": true,
                                            "useGlobalEscalate": true,
                                            "useGlobalFallback": true
                                        },
                                        "templateId": "defaultOpenTemplate",
                                        "containsPii": false,
                                        "description": "If you prefer I can text you the link.",
                                        "isNotConnected": false,
                                        "channelSettings": {
                                            "acceptTextInput": true,
                                            "openInputButtonLabel": "",
                                            "useOpenInputControls": false,
                                            "closedInputButtonType": "Carousel",
                                            "openInputPlaceholderText": ""
                                        },
                                        "applyInputsToFlow": false,
                                        "nodeDisplayOption": "description"
                                    },
                                    {
                                        "id": "8e8c1787-537d-424d-8d44-5f8820eeb1da",
                                        "flow": [
                                            {
                                                "id": "fda9c786-5be1-4de6-9b90-9651ddc87b7b",
                                                "type": "flowCondition",
                                                "label": "default",
                                                "order": 1,
                                                "toNode": "addPoint",
                                                "linkType": "down"
                                            },
                                            {
                                                "id": "7a1956ea-7317-417f-9831-78e332a65b83",
                                                "type": "flowCondition",
                                                "label": "Repair",
                                                "order": 2,
                                                "toNode": "closed",
                                                "linkType": "loop"
                                            }
                                        ],
                                        "type": "node",
                                        "input": [
                                            {
                                                "id": "877c890f-c5c3-4dbc-86f5-85d53d3b4681",
                                                "type": "inputCondition",
                                                "label": "OfferParser",
                                                "order": 1,
                                                "parser": "HelloModel",
                                                "inputType": "NLUModel"
                                            }
                                        ],
                                        "label": "closed",
                                        "output": [],
                                        "parent": "testproject/reattach/subflow",
                                        "nodeType": "closedQuestion",
                                        "parentId": "6f5cee28-8c92-4675-8782-e89f9cd32205/cd18a517-bd22-4a56-ae3d-ee676868ffe5/f36fae85-636e-4b38-9c5f-34621bab411c",
                                        "nodeRules": {
                                            "repairRules": [],
                                            "useGlobalRepairs": true,
                                            "useGlobalEscalate": true,
                                            "useGlobalFallback": true
                                        },
                                        "templateId": "defaultClosedTemplate",
                                        "containsPii": false,
                                        "description": "Closed Question Description",
                                        "isNotConnected": false,
                                        "channelSettings": {
                                            "acceptTextInput": true,
                                            "openInputButtonLabel": "",
                                            "useOpenInputControls": false,
                                            "closedInputButtonType": "Carousel",
                                            "openInputPlaceholderText": ""
                                        },
                                        "applyInputsToFlow": false,
                                        "nodeDisplayOption": "description"
                                    }
                                ]
                            }
                        ]
                    },
                    {
                        "id": "77a31652-f0dc-4620-b8da-55c0457f6707",
                        "type": "subFlow",
                        "label": "subflowNode",
                        "parent": "testproject/reattach",
                        "parentId": "6f5cee28-8c92-4675-8782-e89f9cd32205/cd18a517-bd22-4a56-ae3d-ee676868ffe5",
                        "subflows": [],
                        "description": "",
                        "flowDataSet": [
                            {
                                "channel": {
                                    "id": "RWC",
                                    "type": "channel",
                                    "label": "RWC",
                                    "description": "Rich webchat UI"
                                },
                                "flowData": [
                                    {
                                        "id": "69c61d91-f48f-4b22-94a1-2be1b4321537",
                                        "flow": [
                                            {
                                                "id": "e9b25a93-10e1-4039-b151-137de95bf9e5",
                                                "type": "flowCondition",
                                                "label": "default",
                                                "order": 1,
                                                "toNode": "addPoint",
                                                "description": "Start Experience"
                                            }
                                        ],
                                        "type": "node",
                                        "label": "Start",
                                        "parent": "testproject/reattach/subflowNode",
                                        "nodeType": "startPoint",
                                        "parentId": "6f5cee28-8c92-4675-8782-e89f9cd32205/cd18a517-bd22-4a56-ae3d-ee676868ffe5/77a31652-f0dc-4620-b8da-55c0457f6707",
                                        "description": "Pattern Flow Start",
                                        "applyInputsToFlow": false,
                                        "nodeDisplayOption": "description"
                                    }
                                ]
                            }
                        ]
                    }
                ],
                "description": "",
                "patternType": "Inbound",
                "entityGroups": [
                    {
                        "id": "aa657b9e-0918-4bab-abbb-d278de840e0b",
                        "type": "entityGroup",
                        "label": "defaultEntityGroup",
                        "dependsOn": [],
                        "primaryKey": "default",
                        "description": "defaultEntityGroup",
                        "sharedEndPoint": false
                    }
                ]
            }
        ],
        "templates": {
            "YesNoTemplateId": {
                "id": "YesNoTemplateId",
                "label": "YesNoQuestion",
                "hasPre": true,
                "hasPost": true,
                "hasRepair": true,
                "description": "This is the default ClosedQuestion template",
                "templateType": "closedQuestion",
                "channelConditions": [
                    {
                        "flow": [],
                        "input": {
                            "models": [
                                {
                                    "id": "0dbacff5-1a0a-484b-891e-64414bc28f1d",
                                    "type": "inputCondition",
                                    "label": "Yes",
                                    "parser": "yes, yeah, yah",
                                    "inputType": "Matcher",
                                    "containsPii": false,
                                    "description": "positive user response"
                                },
                                {
                                    "id": "048d5821-34b3-40d4-b663-b0cb0217e192",
                                    "type": "inputCondition",
                                    "label": "No",
                                    "parser": "no, nope, nah",
                                    "inputType": "Matcher",
                                    "containsPii": false,
                                    "description": "negative user response"
                                }
                            ]
                        },
                        "output": [],
                        "channelId": "IVR"
                    },
                    {
                        "flow": [],
                        "input": {
                            "models": [
                                {
                                    "id": "659f5043-ee3c-49a7-a756-92dd8511746e",
                                    "type": "inputCondition",
                                    "label": "Yes",
                                    "parser": "yes, yeah, yah",
                                    "inputType": "Matcher",
                                    "containsPii": false,
                                    "description": "positive user response"
                                },
                                {
                                    "id": "9267c713-c3b9-4067-b00c-920b9d8bb8b6",
                                    "type": "inputCondition",
                                    "label": "No",
                                    "parser": "no, nope, nah",
                                    "inputType": "Matcher",
                                    "containsPii": false,
                                    "description": "negative user response"
                                }
                            ]
                        },
                        "output": [],
                        "channelId": "RWC"
                    },
                    {
                        "flow": [],
                        "input": {
                            "models": [
                                {
                                    "id": "22a30bbc-2956-4242-b08b-24eee49984b4",
                                    "type": "inputCondition",
                                    "label": "Yes",
                                    "parser": "yes, yeah, yah",
                                    "inputType": "Matcher",
                                    "containsPii": false,
                                    "description": "positive user response"
                                },
                                {
                                    "id": "16068b9c-2ab0-4108-9075-baa24fcb51bc",
                                    "type": "inputCondition",
                                    "label": "No",
                                    "parser": "no, nope, nah",
                                    "inputType": "Matcher",
                                    "containsPii": false,
                                    "description": "negative user response"
                                }
                            ]
                        },
                        "output": [],
                        "channelId": "SMS"
                    },
                    {
                        "flow": [],
                        "input": {
                            "models": []
                        },
                        "output": [],
                        "channelId": "App"
                    },
                    {
                        "flow": [],
                        "input": {
                            "models": [
                                {
                                    "id": "f6143384-e2a1-486c-97a8-68086af67456",
                                    "type": "inputCondition",
                                    "label": "Yes",
                                    "parser": "yes, yeah, yah",
                                    "inputType": "Matcher",
                                    "containsPii": false,
                                    "description": "positive user response"
                                },
                                {
                                    "id": "ea758e6b-1aa3-445a-bba8-09b001e61791",
                                    "type": "inputCondition",
                                    "label": "No",
                                    "parser": "no, nope, nah",
                                    "inputType": "Matcher",
                                    "containsPii": false,
                                    "description": "negative user response"
                                }
                            ]
                        },
                        "output": [],
                        "channelId": "rSMS"
                    },
                    {
                        "flow": [],
                        "input": {
                            "models": [
                                {
                                    "id": "a62ad6db-1e82-4040-b6c8-6f8d45c78ad5",
                                    "type": "inputCondition",
                                    "label": "Yes",
                                    "parser": "yes, yeah, yah",
                                    "inputType": "Matcher",
                                    "containsPii": false,
                                    "description": "positive user response"
                                },
                                {
                                    "id": "0a3badd4-7df7-4210-a531-c60b737442b5",
                                    "type": "inputCondition",
                                    "label": "No",
                                    "parser": "no, nope, nah",
                                    "inputType": "Matcher",
                                    "containsPii": false,
                                    "description": "negative user response"
                                }
                            ]
                        },
                        "output": [],
                        "channelId": "VoIP"
                    }
                ]
            },
            "defaultOpenTemplate": {
                "id": "defaultOpenTemplate",
                "label": "DefaultOpenTemplate",
                "hasPre": true,
                "hasPost": true,
                "hasRepair": true,
                "description": "This is the default open template.",
                "templateType": "openQuestion",
                "channelConditions": [
                    {
                        "flow": [],
                        "input": {
                            "models": []
                        },
                        "output": [],
                        "channelId": "IVR"
                    },
                    {
                        "flow": [],
                        "input": {
                            "models": []
                        },
                        "output": [],
                        "channelId": "RWC"
                    },
                    {
                        "flow": [],
                        "input": {
                            "models": []
                        },
                        "output": [],
                        "channelId": "SMS"
                    },
                    {
                        "flow": [],
                        "input": {
                            "models": []
                        },
                        "output": [],
                        "channelId": "App"
                    },
                    {
                        "flow": [],
                        "input": {
                            "models": []
                        },
                        "output": [],
                        "channelId": "rSMS"
                    },
                    {
                        "flow": [],
                        "input": {
                            "models": []
                        },
                        "output": [],
                        "channelId": "VoIP"
                    }
                ]
            },
            "defaultClosedTemplate": {
                "id": "defaultClosedTemplate",
                "label": "DefaultClosedTemplate",
                "hasPre": true,
                "hasPost": true,
                "hasRepair": true,
                "description": "This is the default closed template.",
                "templateType": "closedQuestion",
                "channelConditions": [
                    {
                        "flow": [],
                        "input": {
                            "models": []
                        },
                        "output": [],
                        "channelId": "IVR"
                    },
                    {
                        "flow": [],
                        "input": {
                            "models": []
                        },
                        "output": [],
                        "channelId": "RWC"
                    },
                    {
                        "flow": [],
                        "input": {
                            "models": []
                        },
                        "output": [],
                        "channelId": "SMS"
                    },
                    {
                        "flow": [],
                        "input": {
                            "models": []
                        },
                        "output": [],
                        "channelId": "App"
                    },
                    {
                        "flow": [],
                        "input": {
                            "models": []
                        },
                        "output": [],
                        "channelId": "rSMS"
                    },
                    {
                        "flow": [],
                        "input": {
                            "models": []
                        },
                        "output": [],
                        "channelId": "VoIP"
                    }
                ]
            },
            "defaultPromptTemplate": {
                "id": "defaultPromptTemplate",
                "label": "DefaultPromptTemplate",
                "hasPre": true,
                "hasPost": true,
                "hasRepair": true,
                "description": "This is the default prompt template.",
                "templateType": "prompt",
                "channelConditions": [
                    {
                        "flow": [],
                        "input": {
                            "models": []
                        },
                        "output": [],
                        "channelId": "IVR"
                    },
                    {
                        "flow": [],
                        "input": {
                            "models": []
                        },
                        "output": [],
                        "channelId": "RWC"
                    },
                    {
                        "flow": [],
                        "input": {
                            "models": []
                        },
                        "output": [],
                        "channelId": "SMS"
                    },
                    {
                        "flow": [],
                        "input": {
                            "models": []
                        },
                        "output": [],
                        "channelId": "App"
                    },
                    {
                        "flow": [],
                        "input": {
                            "models": []
                        },
                        "output": [],
                        "channelId": "rSMS"
                    },
                    {
                        "flow": [],
                        "input": {
                            "models": []
                        },
                        "output": [],
                        "channelId": "VoIP"
                    }
                ]
            }
        },
        "description": "",
        "projectType": "None",
        "destinationPdes": [],
        "outcomesBaseline": [],
        "globalRepairRules": [
            {
                "id": "OOCRule",
                "label": "Out of Context",
                "outcome": "fallback",
                "repairType": "outOfContext",
                "description": "Out of context response are when the NLU is unable to classify the user's input. The user is asked to repeat.",
                "numberOfAttempts": 2
            },
            {
                "id": "NRRule",
                "label": "No Response",
                "outcome": "fallback",
                "repairType": "noResponse",
                "description": "No response is when the user does not provide any input. The system will reprompt the user to provide a response",
                "numberOfAttempts": 2
            },
            {
                "id": "ARRule",
                "label": "Agent Request",
                "outcome": "escalate",
                "repairType": "agentRequest",
                "description": "User requests Agent Transfer will trigger an Escalate flow",
                "numberOfAttempts": 1
            },
            {
                "id": "MRBFrule",
                "label": "Maximum Repair before Fallback",
                "outcome": "fallback",
                "repairType": "maximum",
                "description": "Total number of repairs before triggering a fallback action. Fallback should be offering another channel or escalating to an agent",
                "numberOfAttempts": 3
            }
        ],
        "projectObjectVersion": 1
    }